                                                              4  3
                    7                             9        6  3  5  3  2  2  1  1
           1  2  6  2  7 11        4  6    15 15  6  9  8 11 10  5  4  4  4  4  4
        3  4  4  6  1  7  1 10  9  7  7 14  1  2  3 12 12  1  2  6  1  4  6  6  3
   1 11
   1 11
 2 11 2
 2 10 4
  4 9 6
  5 9 6
  7 8 5
  8 7 3
2 5 5 3
   10 2
     14
     16
   14 2
   14 3
   14 3
   15 2
  5 4 3
  3 4 3
1 1 5 2
1 1 2 2
1 1 2 1
1 2 2 1
  2 1 1
    2 2
    2 2